1A424

7826

2678

3F 73 63 72 69 70 74 43 6C 61 73 73 4F 76 65 72 72 69 64 65 40 40 59 41 58 58 5A 00 43 6C 61 73 73 4F 76 65 72 72 69 64 65 2E 64 6C 6C 00 00

?scriptClassOverride@@YAXXZ.ClassOverride.dll..

01 A6 DE

423

24 A4 01
01 A4 24

988

989

09 89
89 09

89 09 01

S:41A000
E:41A1E0

1E0

FF 25 00 A0 41 00 = jmp     ds:__imp_?doPrint@@YAXXZ

FF 25 = jmp

00 A0 41 00

41A000

41A004 = new

41 A0 04

00 41 A0 04

04 A0 41 00

FF 25 04 A0 41 00


41E

420

984

986

0986

86 09

86 A9 01



24 A4 01 00

98A

424 = 




742C

2C74



44C




98A

098A

8A A9







